{
    "name": "Studio",
    "alias": "studio",
    "description": "",
    "keywords": [],
    "active": 1,
    "order": 0,
    "providers": [
        "Modules\\Studio\\Providers\\StudioServiceProvider"
    ],
    "aliases": {},
    "files": [],
    "requires": []
}
